# Fancy Garden design #2 for customer Maree Smith

# the top beds
   Rectangle 2.0 1.0
   Circle 2.0
   Rectangle 2.0 1.0
   
# the bottom beds
   Triangle 1.5 2 2.5
   Triangle 2.5 2.5 2.5
   Triangle 1.5 2 2.5
